Mini-Project 2 – Shen Rothermel
…
To acquire the data, we used a custom scraping function along with an iteration technique (pmap) to systematically collect comparable squad stats from each league’s respective webpage. This ensures consistency while handling slight variations in webpage structure — such as differing table positions.

Scraping the “Squad Standard Stats” table:

To begin, we manually scrape the Major League Soccer (MLS) stats page using rvest. This allows us to locate and inspect the structure of all tables on the page, which helps identify the correct table containing squad-level statistics.

Once we confirm the correct table is loaded (in this case, table 5), we clean it by promoting the first row to column headers, standardizing names, and parsing numeric columns. This results in a tidy dataset ready for analysis.

Creating a Custom Web Scraping Function:

Next, we generalize this scraping process by writing a custom function called scrape_fbref_table(). This function takes in a URL and table number and performs all the cleaning steps automatically. We use it to easily scrape multiple pages later on.

Squad2_cleaned

# A tibble: 30 × 16
   squad  number_pl   age  poss    mp starts   min  x90s   gls   ast   g_a  g_pk
   <chr>      <dbl> <dbl> <dbl> <dbl>  <dbl> <dbl> <dbl> <dbl> <dbl> <dbl> <dbl>
 1 Atlan…        23  29.2  52.6     9     99   810     9     9     6    15     8
 2 Austin        19  28.1  43.9     9     99   810     9     7     5    12     7
 3 CF Mo…        26  24.3  54.1     9     99   810     9     4     3     7     4
 4 Charl…        19  29.2  47.6     9     99   810     9    15     8    23    13
 5 Chica…        23  25.9  48.7     9     99   810     9    16    10    26    14
 6 Color…        25  26.4  44       9     99   810     9    13     8    21    10
 7 Colum…        22  26.7  57.9     9     99   810     9    11    10    21    11
 8 D.C. …        21  26.4  50.8     9     99   810     9    11     9    20    10
 9 FC Ci…        23  27.5  50.2     9     99   810     9    13     7    20    11
10 FC Da…        21  27.6  46.8     9     99   810     9    10     6    16    10
# ℹ 20 more rows
# ℹ 4 more variables: pk <dbl>, p_katt <dbl>, crd_y <dbl>, crd_r <dbl>

Iterating Over Multiple Competitions

We used purrr::pmap() to iterate over multiple variables — specifically, league URLs, the table numbers containing the “Squad Standard Stats” table for each competition, and the league names. This allowed us to apply our custom scraping function across multiple soccer leagues, each with its own unique webpage and table structure. This approach demonstrates how iteration over multiple inputs can automate the data collection process across structured but inconsistent sources.

# Now each league table is separate and named:
league_tables$MLS

# A tibble: 30 × 17
   squad  number_pl   age  poss    mp starts   min  x90s   gls   ast   g_a  g_pk
   <chr>      <dbl> <dbl> <dbl> <dbl>  <dbl> <dbl> <dbl> <dbl> <dbl> <dbl> <dbl>
 1 Atlan…        23  29.2  52.6     9     99   810     9     9     6    15     8
 2 Austin        19  28.1  43.9     9     99   810     9     7     5    12     7
 3 CF Mo…        26  24.3  54.1     9     99   810     9     4     3     7     4
 4 Charl…        19  29.2  47.6     9     99   810     9    15     8    23    13
 5 Chica…        23  25.9  48.7     9     99   810     9    16    10    26    14
 6 Color…        25  26.4  44       9     99   810     9    13     8    21    10
 7 Colum…        22  26.7  57.9     9     99   810     9    11    10    21    11
 8 D.C. …        21  26.4  50.8     9     99   810     9    11     9    20    10
 9 FC Ci…        23  27.5  50.2     9     99   810     9    13     7    20    11
10 FC Da…        21  27.6  46.8     9     99   810     9    10     6    16    10
# ℹ 20 more rows
# ℹ 5 more variables: pk <dbl>, p_katt <dbl>, crd_y <dbl>, crd_r <dbl>,
#   league <chr>
…
